{
  "initial:before": {
    "loopback#favicon": {}
  },
  "initial": {
    "compression": {},
    "cors": {
      "params": {
        "origin": true,
        "credentials": true,
        "maxAge": 86400
      }
    },
    "./middleware/APIValidator": {},
    "./middleware/UUIDValidator": {},
    "./middleware/LBinstance": {},
    "./middleware/LBtoken": {},
    "./middleware/LBlogout": {}
  },
  "session": {},
  "auth": {},
  "parse": {},
  "routes": {
    "./middleware/APIformfieldsvalidator": {},
    "loopback#rest": {
      "paths": [
        "${restApiRoot}"
      ]
    }
  },
  "final": {
    "loopback#urlNotFound": {}
  },
  "final:after": {
    "loopback#errorHandler": {}
  }
}
